<?xml version="1.0" encoding="UTF-8"?>
<testng-results skipped="0" failed="0" ignored="1" total="13" passed="12">
  <reporter-output>
  </reporter-output>
  <suite name="AllTest" duration-ms="13356" started-at="2020-03-05T16:17:07 EET" finished-at="2020-03-05T16:17:20 EET">
    <groups>
    </groups>
    <test name="ServiceAddressTest" duration-ms="13356" started-at="2020-03-05T16:17:07 EET" finished-at="2020-03-05T16:17:20 EET">
      <class name="com.epam.endpoint.ServiceAddressTest">
        <test-method status="PASS" signature="getAddressByCorrectUsersIdTest(java.lang.String)[pri:0, instance:com.epam.endpoint.ServiceAddressTest@14555e0a]" name="getAddressByCorrectUsersIdTest" duration-ms="2890" started-at="2020-03-05T16:17:07 EET" data-provider="correctUsersId" finished-at="2020-03-05T16:17:10 EET">
          <params>
            <param index="0">
              <value>
                <![CDATA[1]]>
              </value>
            </param>
          </params>
          <reporter-output>
          </reporter-output>
        </test-method> <!-- getAddressByCorrectUsersIdTest -->
        <test-method status="PASS" signature="getAddressByCorrectUsersIdTest(java.lang.String)[pri:0, instance:com.epam.endpoint.ServiceAddressTest@14555e0a]" name="getAddressByCorrectUsersIdTest" duration-ms="971" started-at="2020-03-05T16:17:10 EET" data-provider="correctUsersId" finished-at="2020-03-05T16:17:11 EET">
          <params>
            <param index="0">
              <value>
                <![CDATA[2]]>
              </value>
            </param>
          </params>
          <reporter-output>
          </reporter-output>
        </test-method> <!-- getAddressByCorrectUsersIdTest -->
        <test-method status="PASS" signature="getAddressByCorrectUsersIdTest(java.lang.String)[pri:0, instance:com.epam.endpoint.ServiceAddressTest@14555e0a]" name="getAddressByCorrectUsersIdTest" duration-ms="1046" started-at="2020-03-05T16:17:11 EET" data-provider="correctUsersId" finished-at="2020-03-05T16:17:12 EET">
          <params>
            <param index="0">
              <value>
                <![CDATA[3]]>
              </value>
            </param>
          </params>
          <reporter-output>
          </reporter-output>
        </test-method> <!-- getAddressByCorrectUsersIdTest -->
        <test-method status="PASS" signature="getAddressByCorrectUsersIdTest(java.lang.String)[pri:0, instance:com.epam.endpoint.ServiceAddressTest@14555e0a]" name="getAddressByCorrectUsersIdTest" duration-ms="931" started-at="2020-03-05T16:17:12 EET" data-provider="correctUsersId" finished-at="2020-03-05T16:17:13 EET">
          <params>
            <param index="0">
              <value>
                <![CDATA[4]]>
              </value>
            </param>
          </params>
          <reporter-output>
          </reporter-output>
        </test-method> <!-- getAddressByCorrectUsersIdTest -->
        <test-method status="PASS" signature="getAddressByIncorrectCoordinatesTest(java.lang.String, java.lang.String)[pri:0, instance:com.epam.endpoint.ServiceAddressTest@14555e0a]" name="getAddressByIncorrectCoordinatesTest" duration-ms="1033" started-at="2020-03-05T16:17:13 EET" data-provider="incorrectCoordinates" finished-at="2020-03-05T16:17:14 EET">
          <params>
            <param index="0">
              <value>
                <![CDATA[0]]>
              </value>
            </param>
            <param index="1">
              <value>
                <![CDATA[0]]>
              </value>
            </param>
          </params>
          <reporter-output>
          </reporter-output>
        </test-method> <!-- getAddressByIncorrectCoordinatesTest -->
        <test-method status="PASS" signature="getAddressByIncorrectCoordinatesTest(java.lang.String, java.lang.String)[pri:0, instance:com.epam.endpoint.ServiceAddressTest@14555e0a]" name="getAddressByIncorrectCoordinatesTest" duration-ms="814" started-at="2020-03-05T16:17:14 EET" data-provider="incorrectCoordinates" finished-at="2020-03-05T16:17:14 EET">
          <params>
            <param index="0">
              <value>
                <![CDATA[15.23]]>
              </value>
            </param>
            <param index="1">
              <value>
                <![CDATA[-123.2]]>
              </value>
            </param>
          </params>
          <reporter-output>
          </reporter-output>
        </test-method> <!-- getAddressByIncorrectCoordinatesTest -->
        <test-method status="PASS" signature="getAddressByIncorrectCoordinatesTest(java.lang.String, java.lang.String)[pri:0, instance:com.epam.endpoint.ServiceAddressTest@14555e0a]" name="getAddressByIncorrectCoordinatesTest" duration-ms="851" started-at="2020-03-05T16:17:14 EET" data-provider="incorrectCoordinates" finished-at="2020-03-05T16:17:15 EET">
          <params>
            <param index="0">
              <value>
                <![CDATA[-200]]>
              </value>
            </param>
            <param index="1">
              <value>
                <![CDATA[14321]]>
              </value>
            </param>
          </params>
          <reporter-output>
          </reporter-output>
        </test-method> <!-- getAddressByIncorrectCoordinatesTest -->
        <test-method status="PASS" signature="getAddressByIncorrectCoordinatesTest(java.lang.String, java.lang.String)[pri:0, instance:com.epam.endpoint.ServiceAddressTest@14555e0a]" name="getAddressByIncorrectCoordinatesTest" duration-ms="839" started-at="2020-03-05T16:17:15 EET" data-provider="incorrectCoordinates" finished-at="2020-03-05T16:17:16 EET">
          <params>
            <param index="0">
              <value>
                <![CDATA[1243]]>
              </value>
            </param>
            <param index="1">
              <value>
                <![CDATA[2314]]>
              </value>
            </param>
          </params>
          <reporter-output>
          </reporter-output>
        </test-method> <!-- getAddressByIncorrectCoordinatesTest -->
        <test-method status="PASS" signature="getAddressByIncorrectUsersIdTest(java.lang.String)[pri:0, instance:com.epam.endpoint.ServiceAddressTest@14555e0a]" name="getAddressByIncorrectUsersIdTest" duration-ms="933" started-at="2020-03-05T16:17:16 EET" data-provider="incorrectUsersId" finished-at="2020-03-05T16:17:17 EET">
          <params>
            <param index="0">
              <value>
                <![CDATA[-1]]>
              </value>
            </param>
          </params>
          <reporter-output>
          </reporter-output>
        </test-method> <!-- getAddressByIncorrectUsersIdTest -->
        <test-method status="PASS" signature="getAddressByIncorrectUsersIdTest(java.lang.String)[pri:0, instance:com.epam.endpoint.ServiceAddressTest@14555e0a]" name="getAddressByIncorrectUsersIdTest" duration-ms="860" started-at="2020-03-05T16:17:17 EET" data-provider="incorrectUsersId" finished-at="2020-03-05T16:17:18 EET">
          <params>
            <param index="0">
              <value>
                <![CDATA[-100]]>
              </value>
            </param>
          </params>
          <reporter-output>
          </reporter-output>
        </test-method> <!-- getAddressByIncorrectUsersIdTest -->
        <test-method status="PASS" signature="getAddressByIncorrectUsersIdTest(java.lang.String)[pri:0, instance:com.epam.endpoint.ServiceAddressTest@14555e0a]" name="getAddressByIncorrectUsersIdTest" duration-ms="1011" started-at="2020-03-05T16:17:18 EET" data-provider="incorrectUsersId" finished-at="2020-03-05T16:17:19 EET">
          <params>
            <param index="0">
              <value>
                <![CDATA[1000]]>
              </value>
            </param>
          </params>
          <reporter-output>
          </reporter-output>
        </test-method> <!-- getAddressByIncorrectUsersIdTest -->
        <test-method status="PASS" signature="getAllAddressesTest()[pri:0, instance:com.epam.endpoint.ServiceAddressTest@14555e0a]" name="getAllAddressesTest" duration-ms="999" started-at="2020-03-05T16:17:19 EET" finished-at="2020-03-05T16:17:20 EET">
          <reporter-output>
          </reporter-output>
        </test-method> <!-- getAllAddressesTest -->
      </class> <!-- com.epam.endpoint.ServiceAddressTest -->
    </test> <!-- ServiceAddressTest -->
  </suite> <!-- AllTest -->
</testng-results>
